{
 "package": "Connect-4-Dual-Edition",
 "info": {
  "title": "Connect-4-Dual-Edition",
  "author": "LiquidFenrir",
  "category": "game",
  "version": "1.0.1",
  "url": "https://github.com/LiquidFenrir/Connect-4-Dual-Edition/releases",
  "license": "GPLv3",
  "description": "Connect 4 with a twist",
  "details": "This is a normal game of Connect 4, for 2 players on Nintendo Switch (hold the joy-cons sideways!) but with a twist!\\nStart a game with L3/R3 or press L/R (depending on who starts) to toggle between normal and pop-out mode, where you remove the bottom piece of a column and make all the ones above fall one rank!\\nThis should add another layer of strategy to the game, making it ten times more fun! No more ties, once the grid is full, carefully drop down columns and try to win!\\nUse the dpad/abxy buttons to select the column to drop your piece, and L3/R3 to validate your action, starting the other player's turn."
 },
 "changes": "1.0.1\\n\\nthe following bugs/mistakes were noticed and fixed:\\n\\ntext rectangle too small\\ntext position in rectangle\\ntext missing some characters",
 "assets": [
  {
   "url": "https://github.com/LiquidFenrir/Connect-4-Dual-Edition/releases/download/v1.0.1/Connect-4-Dual-Edition.nro",
   "dest": "switch/Connect-4-Dual-Edition/Connect-4-Dual-Edition.nro",
   "type": "update"
  },
  {
   "url": "icon.png",
   "type": "icon"
  },
  {
   "url": "screen.png",
   "type": "screenshot"
  }
 ]
}