{
 "package": "ScreenTester",
 "info": {
  "title": "ScreenTester-NX",
  "author": "marice",
  "category": "tool",
  "version": "0.2",
  "url": "https://github.com/Marice/ScreenTester-NX/releases",
  "license": ".",
  "description": "Screen Testing App",
  "details": "This program displays different colors to detect dead/stuck pixels on your Nintendo-Switch screen.It can cycle colors on your Switch screen very rapidly to try and repair stuck/dead pixels."
 },
 "changes": "",
 "assets": [
  {
   "url": "https://github.com/Marice/ScreenTester-NX/releases/download/screentester0.2/ScreenTester-NX-v0.2.zip",
   "type": "zip",
   "zip": [
    {
     "path": "switch/ScreenTester-NX/menubg.bmp",
     "dest": "switch/ScreenTester-NX/menubg.bmp",
     "type": "update"
    },
    {
     "path": "switch/ScreenTester-NX/ScreenTester-NX.nro",
     "dest": "switch/ScreenTester-NX/ScreenTester-NX.nro",
     "type": "update"
    }
   ]
  },
  {
   "url": "icon.png",
   "type": "icon"
  },
  {
   "url": "screen.png",
   "type": "screenshot"
  }
 ]
}