{
 "package": "Cpp-Snake-NX",
 "info": {
  "title": "Cpp-Snake-NX",
  "author": "CompSciOrBust",
  "category": "game",
  "version": "1.1.0",
  "url": "https://github.com/CompSciOrBust/Cpp-Snake-NX/releases",
  "license": "n/a",
  "description": "simple snake game ",
  "details": "A simple snake game written in c++ by NULLx76 and ported to the Nintendo Switch by CompSciOrBust."
 },
 "changes": "1.1.0\\n\\nEnabled video capture when overriding a supporting title",
 "assets": [
  {
   "url": "https://github.com/CompSciOrBust/Cpp-Snake-NX/releases/download/1.1.0/Cpp-Snake-NX.nro",
   "dest": "switch/Cpp-Snake-NX/Cpp-Snake-NX.nro",
   "type": "update"
  }
 ]
}