{
 "package": "nx-midi",
 "info": {
  "title": "nx-midi",
  "author": "Cyuubi",
  "category": "tool",
  "version": "1.0",
  "url": "https://github.com/Cyuubi/nx-midi/releases",
  "license": "n/a",
  "description": "Play MIDI files on your Nintendo Switch!",
  "details": "\\nPlay MIDI files on your Nintendo Switch!\\n\\nUsage\\n\\nPlace any .sf2 and .mid file on the root of your SD card called default.sf2 and default.mid and enjoy!\\n\\nCredits\\n\\nschellingb - TinySoundFont (includes MIDI parser + soundfont engine)"
 },
 "changes": "",
 "assets": [
  {
   "url": "https://github.com/Cyuubi/nx-midi/releases/download/v1.0/nx-midi.nro",
   "dest": "switch/nx-midi/nx-midi.nro",
   "type": "update"
  }
 ]
}