{
 "package": "SkyMM-NX",
 "info": {
  "title": "SkyMM-NX",
  "author": "caseif",
  "category": "tool",
  "version": "1.0.0",
  "url": "https://github.com/caseif/SkyMM-NX/releases",
  "license": "MIT",
  "description": "Simple mod manager for Skyrim",
  "details": "SkyMM-NX is a simple mod manager that runs on your Switch and provides an easy way to toggle mods on and off.\\n\\nSkyMM will attempt to discover all mods present in Skyrim's ROMFS on the SD card and present them through its interface. Through the interface, you can toggle mods on or off, or change the load order by holding Y. Note that the load order for pure replacement mods (lacking an ESP) will not be preserved when the respective mods are disabled.\\n\\nWhen the save function is invoked, the INI and Plugins files will be modified accordingly and saved to the SD card.\\n\\nCurrently, the app requires that all mods follow a standard naming scheme:\\n\\nBSA files with a suffix must use a hyphen with one space on either side between the base name and the suffix\\nExample: Static Mesh Improvement Mod - Textures.bsa\\nNote that a mod may have exactly one non-suffixed BSA file\\nBSA files with an associated ESP file must match the ESP's name, not including the suffix\\nExample: Static Mesh Improvement Mod - Textures.bsa matches Static Mesh Improvement Mod.esp\\nAll BSA files for a given mod must match each other in name\\nExample: Static Mesh Improvement Mod - Textures.bsa matches Static Mesh Improvement Mod - Meshes.bsa"
 },
 "changes": "",
 "assets": [
  {
   "url": "https://github.com/caseif/SkyMM-NX/releases/download/1.0.0/SkyMM-NX.nro",
   "dest": "switch/SkyMM-NX/SkyMM-NX.nro",
   "type": "update"
  },
  {
   "url": "icon.png",
   "type": "icon"
  },
  {
   "url": "screen.png",
   "type": "screenshot"
  }
 ]
}