{
 "package": "Avatool",
 "info": {
  "title": "Avatool",
  "author": "J-D-K",
  "category": "tool",
  "version": "1",
  "url": "https://github.com/J-D-K/Avatool/releases",
  "license": "GPLv3",
  "description": "Homebrew tool to overwrite Switch account avatars.",
  "details": "Avatool relies on shutting down the Switch's account service. This will result in a crash eventually. Once this is done:\\n\\nL and R change the target avatar\\nUp and Down control menu\\nA overwrites targetted avatars\\nAvatars are 256x256 jpg images. Place them in sdmc:/avatar/ for Avatool to find them."
 },
 "changes": "",
 "assets": [
  {
   "url": "https://github.com/J-D-K/Avatool/releases/download/1/Avatool.nro",
   "dest": "switch/Avatool/Avatool.nro",
   "type": "update"
  },
  {
   "url": "icon.png",
   "type": "icon"
  }
 ]
}