{
 "package": "SMM2CourseInjector",
 "info": {
  "title": "SMM2CourseInjector",
  "author": "Chrs2324",
  "category": "tool",
  "version": "1.0.1",
  "url": "https://github.com/Chrs2324/SMM2CourseInjector/releases",
  "license": "",
  "description": "SMM2 Course Injector",
  "details": "An application that allows you to automatically add SMM2 courses to your save file! To get started, simply create a new course and save it onto the course bot. Then, create a folder titled \"smm2 courses\" and place it in \"sdmc:/switch\". Next, add your downloaded courses to the folder. Once you've placed your courses in the folder, simply run the application and it will inject the courses into your save file!"
 },
 "changes": "1.0.1\\n\\nRebuilt to work on new 9.0.0 firmware.",
 "assets": [
  {
   "url": "https://github.com/Chrs2324/SMM2CourseInjector/releases/download/1.0.1/CourseInjector.nro",
   "dest": "switch/SMM2CourseInjector/CourseInjector.nro",
   "type": "update"
  }
 ]
}