{
 "package": "GoldBricks",
 "info": {
  "title": "GoldBricks",
  "author": "blawar",
  "category": "tool",
  "version": "1.0.0",
  "url": "https://github.com/blawar/goldbricks/releases",
  "license": "GPLv3",
  "description": "GoldBricks is multipurpose installer",
  "details": "This is an evolution of the popular Goldleaf application to support even more features such as Nut, GDRive, and NSP compression (NSZ).\\n\\nUSB Installer\\nIt is extremely important to note that this does not work with Quark, Fluffy, or NS-USBLoader. This only works with Nut os SX Server for USB installs.\\n\\nIf you really insist on using the old USB Installers, I will maintain a release that still has them. Currently 0.7.3 in the releases section supports these old USB installers.\\n\\n\\nHigh Memory Requirement\\nThere is not enough free memory left to add NSZ support in applet mode. Therefore title installs will require that GoldBricks be ran in high memory mode via title override or a piracy NSP forwarder (not provided in this download but from the source URL)."
 },
 "changes": "v1.0.0\\n\\nNow switched to the fabulous Nut program for fast-ish NSP / NSZ installs from your PC via USB!\\n\\nAlso supports authenticated GDrive over USB with Nut! Supports Team Drives as well, so you can easily copy all of those scripture's from your sunday school's shared drive!\\n\\nFor more information or to download Nut, please visit: https://github.com/blawar/nut\\n\\nv 0.7.3\\n\\nSupports NSP / NSZ installation. Make sure your NAND backups are up to date!\\n\\nThis application must be ran in title override or via piracy nsp forwarder to install NSP / NSZ files!",
 "assets": [
  {
   "url": "https://github.com/blawar/goldbricks/releases/download/v1.0.0/goldbricks.zip",
   "type": "zip",
   "zip": [
    {
     "path": "switch/goldbricks/goldbricks.nro",
     "dest": "switch/goldbricks/goldbricks.nro",
     "type": "update"
    }
   ]
  },
  {
   "url": "icon.png",
   "type": "icon"
  },
  {
   "url": "screen.png",
   "type": "screenshot"
  }
 ]
}