{
 "package": "Fifteen-NX",
 "info": {
  "title": "Fifteen NX",
  "author": "Manurocker95",
  "category": "game",
  "version": "1.0",
  "url": "https://github.com/Manurocker95/FifteenNX/releases",
  "license": "GPLv3",
  "description": "Fifteen Puzzle Game ",
  "details": "Fifteen Puzzle game for the Switch.\\n\\nNote : No info provided from the author."
 },
 "changes": "v1.0 \\n\\nInitial Release.",
 "assets": [
  {
   "url": "https://github.com/Manurocker95/FifteenNX/releases/download/1.0/Fifteen_NX.nro",
   "dest": "switch/Fifteen-NX/Fifteen_NX.nro",
   "type": "update"
  },
  {
   "url": "icon.png",
   "type": "icon"
  },
  {
   "url": "screen.png",
   "type": "screenshot"
  }
 ]
}