{
 "package": "spacenx",
 "info": {
  "title": "Space Game NX",
  "author": "vgmoose",
  "category": "game",
  "version": "1.1",
  "url": "https://github.com/vgmoose/spacenx",
  "license": "MIT License",
  "description": "Shoot rocks in outer space, and stuff",
  "details": "This is a port of Space Game - https://github.com/vgmoose/space to the Switch, using libtransistor.\\nThe game is currently fully playable, but there's no music, enemy count is limited to compared to the Wii U version, and some Switch-specific features are planned."
 },
 "changes": "",
 "assets": [
  {
   "url": "https://github.com/vgmoose/sdl-space/releases/download/1.1/spacenx.nro",
   "dest": "switch/spacenx.nro",
   "type": "update"
  },
  {
   "url": "icon.png",
   "type": "icon"
  },
  {
   "url": "screen.png",
   "type": "screenshot"
  }
 ]
}