{
 "package": "DVDlogo",
 "info": {
  "title": "DVDLogo",
  "author": "simontime",
  "category": "",
  "version": "1.2",
  "url": "https://github.com/simontime/DVDLogo/releases",
  "license": "",
  "description": "A bouncing DVD logo screensaver for Switch.",
  "details": "\\nA bouncing DVD logo screensaver for Switch.\\n\\n\\n\\nnothing else.\\n"
 },
 "changes": "1.2\\n\\nMove the logo around using the touch screen.\\n\\n1.1\\n\\nPress A to toggle speeds.\\n\\n1.0\\n\\nInitial Release",
 "assets": [
  {
   "url": "https://github.com/simontime/DVDLogo/releases/download/v1.2/DVDLogo.nro",
   "dest": "switch/DVDlogo/DVDLogo.nro",
   "type": "update"
  },
  {
   "url": "icon.png",
   "type": "icon"
  },
  {
   "url": "screen.png",
   "type": "screenshot"
  }
 ]
}