{
 "package": "eduke32",
 "info": {
  "title": "eduke32",
  "author": "Cpasjuste",
  "category": "game",
  "version": "v1.3",
  "url": "https://github.com/Cpasjuste/eduke32/releases",
  "license": "GPLv2",
  "description": "Duke Nukem 3D engine",
  "details": "Here is a port of the excellent eduke32 engine to the switch.\\n\nThis Download includes the Shareware version of the game.\\n\\nYou can however alter the game type by copying DUKE3D.GRP and DUKE.RTS to /switch/eduke32 folder\\n\\nFurther information on this can be found here : http://wiki.eduke32.com/wiki/Installation_and_configuration."
 },
 "changes": "Fixes launch crash from files being in wrong directory! Please feel free to use the \"Report Issue\" button above if there are any other problems.",
 "assets": [
  {
   "url": "https://github.com/Cpasjuste/eduke32/releases/download/v1.3/eduke32_v1.3.zip",
   "type": "zip",
   "zip": [
    {
     "path": "eduke32/eduke32.nro",
     "dest": "switch/eduke32/eduke32.nro",
     "type": "update"
    },
    {
     "path": "eduke32/eduke32.cfg",
     "dest": "switch/eduke32/eduke32.cfg",
     "type": "update"
    }
   ]
  },
  {
   "url": "icon.png",
   "type": "icon"
  },
  {
   "url": "screen.png",
   "type": "screenshot"
  }
 ]
}